%YAML 1.1
%TAG !u! tag:unity3d.com,2011:
--- !u!1 &149692375598526780
GameObject:
  m_ObjectHideFlags: 0
  m_CorrespondingSourceObject: {fileID: 0}
  m_PrefabInstance: {fileID: 0}
  m_PrefabAsset: {fileID: 0}
  serializedVersion: 6
  m_Component:
  - component: {fileID: 4814707525347889223}
  m_Layer: 0
  m_Name: Gpu2
  m_TagString: Untagged
  m_Icon: {fileID: 0}
  m_NavMeshLayer: 0
  m_StaticEditorFlags: 0
  m_IsActive: 1
--- !u!4 &4814707525347889223
Transform:
  m_ObjectHideFlags: 0
  m_CorrespondingSourceObject: {fileID: 0}
  m_PrefabInstance: {fileID: 0}
  m_PrefabAsset: {fileID: 0}
  m_GameObject: {fileID: 149692375598526780}
  m_LocalRotation: {x: 0, y: 0, z: 0, w: 1}
  m_LocalPosition: {x: 0, y: 0, z: 0}
  m_LocalScale: {x: 1, y: 1, z: 1}
  m_Children:
  - {fileID: 1985363651302123033}
  m_Father: {fileID: 0}
  m_RootOrder: 0
  m_LocalEulerAnglesHint: {x: 0, y: 0, z: 0}
--- !u!1001 &2019816903415464434
PrefabInstance:
  m_ObjectHideFlags: 0
  serializedVersion: 2
  m_Modification:
    m_TransformParent: {fileID: 4814707525347889223}
    m_Modifications:
    - target: {fileID: -8679921383154817045, guid: f99c631e77c7e4202b6a04f7378b568d, type: 3}
      propertyPath: m_LocalPosition.x
      value: -0
      objectReference: {fileID: 0}
    - target: {fileID: -8679921383154817045, guid: f99c631e77c7e4202b6a04f7378b568d, type: 3}
      propertyPath: m_LocalPosition.y
      value: 0
      objectReference: {fileID: 0}
    - target: {fileID: -8679921383154817045, guid: f99c631e77c7e4202b6a04f7378b568d, type: 3}
      propertyPath: m_LocalPosition.z
      value: 0
      objectReference: {fileID: 0}
    - target: {fileID: -8679921383154817045, guid: f99c631e77c7e4202b6a04f7378b568d, type: 3}
      propertyPath: m_LocalRotation.x
      value: -0.7071068
      objectReference: {fileID: 0}
    - target: {fileID: -8679921383154817045, guid: f99c631e77c7e4202b6a04f7378b568d, type: 3}
      propertyPath: m_LocalRotation.y
      value: 0
      objectReference: {fileID: 0}
    - target: {fileID: -8679921383154817045, guid: f99c631e77c7e4202b6a04f7378b568d, type: 3}
      propertyPath: m_LocalRotation.z
      value: -0
      objectReference: {fileID: 0}
    - target: {fileID: -8679921383154817045, guid: f99c631e77c7e4202b6a04f7378b568d, type: 3}
      propertyPath: m_LocalRotation.w
      value: 0.7071067
      objectReference: {fileID: 0}
    - target: {fileID: -8679921383154817045, guid: f99c631e77c7e4202b6a04f7378b568d, type: 3}
      propertyPath: m_RootOrder
      value: 0
      objectReference: {fileID: 0}
    - target: {fileID: -8679921383154817045, guid: f99c631e77c7e4202b6a04f7378b568d, type: 3}
      propertyPath: m_LocalEulerAnglesHint.x
      value: 0
      objectReference: {fileID: 0}
    - target: {fileID: -8679921383154817045, guid: f99c631e77c7e4202b6a04f7378b568d, type: 3}
      propertyPath: m_LocalEulerAnglesHint.y
      value: 0
      objectReference: {fileID: 0}
    - target: {fileID: -8679921383154817045, guid: f99c631e77c7e4202b6a04f7378b568d, type: 3}
      propertyPath: m_LocalEulerAnglesHint.z
      value: 0
      objectReference: {fileID: 0}
    - target: {fileID: -8679921383154817045, guid: f99c631e77c7e4202b6a04f7378b568d, type: 3}
      propertyPath: m_LocalScale.x
      value: 0.024902834
      objectReference: {fileID: 0}
    - target: {fileID: -8679921383154817045, guid: f99c631e77c7e4202b6a04f7378b568d, type: 3}
      propertyPath: m_LocalScale.y
      value: 0.024902834
      objectReference: {fileID: 0}
    - target: {fileID: -8679921383154817045, guid: f99c631e77c7e4202b6a04f7378b568d, type: 3}
      propertyPath: m_LocalScale.z
      value: 0.024902834
      objectReference: {fileID: 0}
    - target: {fileID: -7511558181221131132, guid: f99c631e77c7e4202b6a04f7378b568d, type: 3}
      propertyPath: m_Materials.Array.data[0]
      value: 
      objectReference: {fileID: 2100000, guid: 9451f436a77224d588eed399ac25f5ec, type: 2}
    - target: {fileID: -7511558181221131132, guid: f99c631e77c7e4202b6a04f7378b568d, type: 3}
      propertyPath: m_Materials.Array.data[1]
      value: 
      objectReference: {fileID: 2100000, guid: 63bf5e172a5dc43c6a727a50271cdb61, type: 2}
    - target: {fileID: -7511558181221131132, guid: f99c631e77c7e4202b6a04f7378b568d, type: 3}
      propertyPath: m_Materials.Array.data[2]
      value: 
      objectReference: {fileID: 2100000, guid: c7059b3eae08942e88a6d8dfc0b42291, type: 2}
    - target: {fileID: -7511558181221131132, guid: f99c631e77c7e4202b6a04f7378b568d, type: 3}
      propertyPath: m_Materials.Array.data[3]
      value: 
      objectReference: {fileID: 2100000, guid: c7169d4104e804a13bc957a8f68be792, type: 2}
    - target: {fileID: -7511558181221131132, guid: f99c631e77c7e4202b6a04f7378b568d, type: 3}
      propertyPath: m_Materials.Array.data[4]
      value: 
      objectReference: {fileID: 2100000, guid: 9451f436a77224d588eed399ac25f5ec, type: 2}
    - target: {fileID: 919132149155446097, guid: f99c631e77c7e4202b6a04f7378b568d, type: 3}
      propertyPath: m_Name
      value: gpu2
      objectReference: {fileID: 0}
    m_RemovedComponents: []
  m_SourcePrefab: {fileID: 100100000, guid: f99c631e77c7e4202b6a04f7378b568d, type: 3}
--- !u!4 &1985363651302123033 stripped
Transform:
  m_CorrespondingSourceObject: {fileID: -8679921383154817045, guid: f99c631e77c7e4202b6a04f7378b568d, type: 3}
  m_PrefabInstance: {fileID: 2019816903415464434}
  m_PrefabAsset: {fileID: 0}
